{
  "href": "https://api.spotify.com/v1/playlists/01Tk0s9YXCMSxphZSSv994/tracks?offset=0&limit=4",
  "items": [
    {
      "added_at": "2020-01-15T21:37:49Z",
      "added_by": {
        "external_urls": {
          "spotify": "https://open.spotify.com/user/matthewkwong"
        },
        "href": "https://api.spotify.com/v1/users/matthewkwong",
        "id": "matthewkwong",
        "type": "user",
        "uri": "spotify:user:matthewkwong"
      },
      "is_local": false,
      "primary_color": null,
      "track": {
        "album": {
          "album_type": "album",
          "artists": [
            {
              "external_urls": {
                "spotify": "https://open.spotify.com/artist/4LLpKhyESsyAXpc4laK94U"
              },
              "href": "https://api.spotify.com/v1/artists/4LLpKhyESsyAXpc4laK94U",
              "id": "4LLpKhyESsyAXpc4laK94U",
              "name": "Mac Miller",
              "type": "artist",
              "uri": "spotify:artist:4LLpKhyESsyAXpc4laK94U"
            }
          ],
          "available_markets": [
            "AD",
            "AE",
            "AR",
            "AT",
            "AU",
            "BE",
            "BG",
            "BH",
            "BO",
            "BR",
            "CA",
            "CH",
            "CL",
            "CO",
            "CR",
            "CY",
            "CZ",
            "DE",
            "DK",
            "DO",
            "DZ",
            "EC",
            "EE",
            "EG",
            "ES",
            "FI",
            "FR",
            "GB",
            "GR",
            "GT",
            "HK",
            "HN",
            "HU",
            "ID",
            "IE",
            "IL",
            "IN",
            "IS",
            "IT",
            "JO",
            "JP",
            "KW",
            "LB",
            "LI",
            "LT",
            "LU",
            "LV",
            "MA",
            "MC",
            "MT",
            "MX",
            "MY",
            "NI",
            "NL",
            "NO",
            "NZ",
            "OM",
            "PA",
            "PE",
            "PH",
            "PL",
            "PS",
            "PT",
            "PY",
            "QA",
            "RO",
            "SA",
            "SE",
            "SG",
            "SK",
            "SV",
            "TH",
            "TN",
            "TR",
            "TW",
            "US",
            "UY",
            "VN",
            "ZA"
          ],
          "external_urls": {
            "spotify": "https://open.spotify.com/album/5wtE5aLX5r7jOosmPhJhhk"
          },
          "href": "https://api.spotify.com/v1/albums/5wtE5aLX5r7jOosmPhJhhk",
          "id": "5wtE5aLX5r7jOosmPhJhhk",
          "images": [
            {
              "height": 640,
              "url": "https://i.scdn.co/image/ab67616d0000b273175c577a61aa13d4fb4b6534",
              "width": 640
            },
            {
              "height": 300,
              "url": "https://i.scdn.co/image/ab67616d00001e02175c577a61aa13d4fb4b6534",
              "width": 300
            },
            {
              "height": 64,
              "url": "https://i.scdn.co/image/ab67616d00004851175c577a61aa13d4fb4b6534",
              "width": 64
            }
          ],
          "name": "Swimming",
          "release_date": "2018-08-03",
          "release_date_precision": "day",
          "total_tracks": 13,
          "type": "album",
          "uri": "spotify:album:5wtE5aLX5r7jOosmPhJhhk"
        },
        "artists": [
          {
            "external_urls": {
              "spotify": "https://open.spotify.com/artist/4LLpKhyESsyAXpc4laK94U"
            },
            "href": "https://api.spotify.com/v1/artists/4LLpKhyESsyAXpc4laK94U",
            "id": "4LLpKhyESsyAXpc4laK94U",
            "name": "Mac Miller",
            "type": "artist",
            "uri": "spotify:artist:4LLpKhyESsyAXpc4laK94U"
          }
        ],
        "available_markets": [
          "AD",
          "AE",
          "AR",
          "AT",
          "AU",
          "BE",
          "BG",
          "BH",
          "BO",
          "BR",
          "CA",
          "CH",
          "CL",
          "CO",
          "CR",
          "CY",
          "CZ",
          "DE",
          "DK",
          "DO",
          "DZ",
          "EC",
          "EE",
          "EG",
          "ES",
          "FI",
          "FR",
          "GB",
          "GR",
          "GT",
          "HK",
          "HN",
          "HU",
          "ID",
          "IE",
          "IL",
          "IN",
          "IS",
          "IT",
          "JO",
          "JP",
          "KW",
          "LB",
          "LI",
          "LT",
          "LU",
          "LV",
          "MA",
          "MC",
          "MT",
          "MX",
          "MY",
          "NI",
          "NL",
          "NO",
          "NZ",
          "OM",
          "PA",
          "PE",
          "PH",
          "PL",
          "PS",
          "PT",
          "PY",
          "QA",
          "RO",
          "SA",
          "SE",
          "SG",
          "SK",
          "SV",
          "TH",
          "TN",
          "TR",
          "TW",
          "US",
          "UY",
          "VN",
          "ZA"
        ],
        "disc_number": 1,
        "duration_ms": 288640,
        "episode": false,
        "explicit": true,
        "external_ids": {
          "isrc": "USWB11801213"
        },
        "external_urls": {
          "spotify": "https://open.spotify.com/track/2dgrYdgguVZKeCsrVb9XEs"
        },
        "href": "https://api.spotify.com/v1/tracks/2dgrYdgguVZKeCsrVb9XEs",
        "id": "2dgrYdgguVZKeCsrVb9XEs",
        "is_local": false,
        "name": "What's the Use?",
        "popularity": 70,
        "preview_url": "https://p.scdn.co/mp3-preview/ce5a2f2092a8a51ac05b9979057732b89cac50c0?cid=774b29d4f13844c495f206cafdad9c86",
        "track": true,
        "track_number": 3,
        "type": "track",
        "uri": "spotify:track:2dgrYdgguVZKeCsrVb9XEs"
      },
      "video_thumbnail": {
        "url": null
      }
    },
    {
      "added_at": "2020-01-26T02:34:27Z",
      "added_by": {
        "external_urls": {
          "spotify": "https://open.spotify.com/user/matthewkwong"
        },
        "href": "https://api.spotify.com/v1/users/matthewkwong",
        "id": "matthewkwong",
        "type": "user",
        "uri": "spotify:user:matthewkwong"
      },
      "is_local": false,
      "primary_color": null,
      "track": {
        "album": {
          "album_type": "album",
          "artists": [
            {
              "external_urls": {
                "spotify": "https://open.spotify.com/artist/4LLpKhyESsyAXpc4laK94U"
              },
              "href": "https://api.spotify.com/v1/artists/4LLpKhyESsyAXpc4laK94U",
              "id": "4LLpKhyESsyAXpc4laK94U",
              "name": "Mac Miller",
              "type": "artist",
              "uri": "spotify:artist:4LLpKhyESsyAXpc4laK94U"
            }
          ],
          "available_markets": [
            "AD",
            "AE",
            "AR",
            "AT",
            "AU",
            "BE",
            "BG",
            "BH",
            "BO",
            "BR",
            "CA",
            "CH",
            "CL",
            "CO",
            "CR",
            "CY",
            "CZ",
            "DE",
            "DK",
            "DO",
            "DZ",
            "EC",
            "EE",
            "EG",
            "ES",
            "FI",
            "FR",
            "GB",
            "GR",
            "GT",
            "HK",
            "HN",
            "HU",
            "ID",
            "IE",
            "IL",
            "IN",
            "IS",
            "IT",
            "JO",
            "JP",
            "KW",
            "LB",
            "LI",
            "LT",
            "LU",
            "LV",
            "MA",
            "MC",
            "MT",
            "MX",
            "MY",
            "NI",
            "NL",
            "NO",
            "NZ",
            "OM",
            "PA",
            "PE",
            "PH",
            "PL",
            "PS",
            "PT",
            "PY",
            "QA",
            "RO",
            "SA",
            "SE",
            "SG",
            "SK",
            "SV",
            "TH",
            "TN",
            "TR",
            "TW",
            "US",
            "UY",
            "VN",
            "ZA"
          ],
          "external_urls": {
            "spotify": "https://open.spotify.com/album/5sY6UIQ32GqwMLAfSNEaXb"
          },
          "href": "https://api.spotify.com/v1/albums/5sY6UIQ32GqwMLAfSNEaXb",
          "id": "5sY6UIQ32GqwMLAfSNEaXb",
          "images": [
            {
              "height": 640,
              "url": "https://i.scdn.co/image/ab67616d0000b27326b7dd89810cc1a40ada642c",
              "width": 640
            },
            {
              "height": 300,
              "url": "https://i.scdn.co/image/ab67616d00001e0226b7dd89810cc1a40ada642c",
              "width": 300
            },
            {
              "height": 64,
              "url": "https://i.scdn.co/image/ab67616d0000485126b7dd89810cc1a40ada642c",
              "width": 64
            }
          ],
          "name": "Circles",
          "release_date": "2020-01-17",
          "release_date_precision": "day",
          "total_tracks": 12,
          "type": "album",
          "uri": "spotify:album:5sY6UIQ32GqwMLAfSNEaXb"
        },
        "artists": [
          {
            "external_urls": {
              "spotify": "https://open.spotify.com/artist/4LLpKhyESsyAXpc4laK94U"
            },
            "href": "https://api.spotify.com/v1/artists/4LLpKhyESsyAXpc4laK94U",
            "id": "4LLpKhyESsyAXpc4laK94U",
            "name": "Mac Miller",
            "type": "artist",
            "uri": "spotify:artist:4LLpKhyESsyAXpc4laK94U"
          }
        ],
        "available_markets": [
          "AD",
          "AE",
          "AR",
          "AT",
          "AU",
          "BE",
          "BG",
          "BH",
          "BO",
          "BR",
          "CA",
          "CH",
          "CL",
          "CO",
          "CR",
          "CY",
          "CZ",
          "DE",
          "DK",
          "DO",
          "DZ",
          "EC",
          "EE",
          "EG",
          "ES",
          "FI",
          "FR",
          "GB",
          "GR",
          "GT",
          "HK",
          "HN",
          "HU",
          "ID",
          "IE",
          "IL",
          "IN",
          "IS",
          "IT",
          "JO",
          "JP",
          "KW",
          "LB",
          "LI",
          "LT",
          "LU",
          "LV",
          "MA",
          "MC",
          "MT",
          "MX",
          "MY",
          "NI",
          "NL",
          "NO",
          "NZ",
          "OM",
          "PA",
          "PE",
          "PH",
          "PL",
          "PS",
          "PT",
          "PY",
          "QA",
          "RO",
          "SA",
          "SE",
          "SG",
          "SK",
          "SV",
          "TH",
          "TN",
          "TR",
          "TW",
          "US",
          "UY",
          "VN",
          "ZA"
        ],
        "disc_number": 1,
        "duration_ms": 232211,
        "episode": false,
        "explicit": false,
        "external_ids": {
          "isrc": "USWB11801007"
        },
        "external_urls": {
          "spotify": "https://open.spotify.com/track/3WfSNAoj2D8C9noPSGZZFM"
        },
        "href": "https://api.spotify.com/v1/tracks/3WfSNAoj2D8C9noPSGZZFM",
        "id": "3WfSNAoj2D8C9noPSGZZFM",
        "is_local": false,
        "name": "Complicated",
        "popularity": 66,
        "preview_url": "https://p.scdn.co/mp3-preview/646e24b96778a40e8aa39b5344fc52437a832fac?cid=774b29d4f13844c495f206cafdad9c86",
        "track": true,
        "track_number": 2,
        "type": "track",
        "uri": "spotify:track:3WfSNAoj2D8C9noPSGZZFM"
      },
      "video_thumbnail": {
        "url": null
      }
    },
    {
      "added_at": "2020-01-26T02:34:37Z",
      "added_by": {
        "external_urls": {
          "spotify": "https://open.spotify.com/user/matthewkwong"
        },
        "href": "https://api.spotify.com/v1/users/matthewkwong",
        "id": "matthewkwong",
        "type": "user",
        "uri": "spotify:user:matthewkwong"
      },
      "is_local": false,
      "primary_color": null,
      "track": {
        "album": {
          "album_type": "album",
          "artists": [
            {
              "external_urls": {
                "spotify": "https://open.spotify.com/artist/4LLpKhyESsyAXpc4laK94U"
              },
              "href": "https://api.spotify.com/v1/artists/4LLpKhyESsyAXpc4laK94U",
              "id": "4LLpKhyESsyAXpc4laK94U",
              "name": "Mac Miller",
              "type": "artist",
              "uri": "spotify:artist:4LLpKhyESsyAXpc4laK94U"
            }
          ],
          "available_markets": [
            "AD",
            "AE",
            "AR",
            "AT",
            "AU",
            "BE",
            "BG",
            "BH",
            "BO",
            "BR",
            "CA",
            "CH",
            "CL",
            "CO",
            "CR",
            "CY",
            "CZ",
            "DE",
            "DK",
            "DO",
            "DZ",
            "EC",
            "EE",
            "EG",
            "ES",
            "FI",
            "FR",
            "GB",
            "GR",
            "GT",
            "HK",
            "HN",
            "HU",
            "ID",
            "IE",
            "IL",
            "IN",
            "IS",
            "IT",
            "JO",
            "JP",
            "KW",
            "LB",
            "LI",
            "LT",
            "LU",
            "LV",
            "MA",
            "MC",
            "MT",
            "MX",
            "MY",
            "NI",
            "NL",
            "NO",
            "NZ",
            "OM",
            "PA",
            "PE",
            "PH",
            "PL",
            "PS",
            "PT",
            "PY",
            "QA",
            "RO",
            "SA",
            "SE",
            "SG",
            "SK",
            "SV",
            "TH",
            "TN",
            "TR",
            "TW",
            "US",
            "UY",
            "VN",
            "ZA"
          ],
          "external_urls": {
            "spotify": "https://open.spotify.com/album/5sY6UIQ32GqwMLAfSNEaXb"
          },
          "href": "https://api.spotify.com/v1/albums/5sY6UIQ32GqwMLAfSNEaXb",
          "id": "5sY6UIQ32GqwMLAfSNEaXb",
          "images": [
            {
              "height": 640,
              "url": "https://i.scdn.co/image/ab67616d0000b27326b7dd89810cc1a40ada642c",
              "width": 640
            },
            {
              "height": 300,
              "url": "https://i.scdn.co/image/ab67616d00001e0226b7dd89810cc1a40ada642c",
              "width": 300
            },
            {
              "height": 64,
              "url": "https://i.scdn.co/image/ab67616d0000485126b7dd89810cc1a40ada642c",
              "width": 64
            }
          ],
          "name": "Circles",
          "release_date": "2020-01-17",
          "release_date_precision": "day",
          "total_tracks": 12,
          "type": "album",
          "uri": "spotify:album:5sY6UIQ32GqwMLAfSNEaXb"
        },
        "artists": [
          {
            "external_urls": {
              "spotify": "https://open.spotify.com/artist/4LLpKhyESsyAXpc4laK94U"
            },
            "href": "https://api.spotify.com/v1/artists/4LLpKhyESsyAXpc4laK94U",
            "id": "4LLpKhyESsyAXpc4laK94U",
            "name": "Mac Miller",
            "type": "artist",
            "uri": "spotify:artist:4LLpKhyESsyAXpc4laK94U"
          }
        ],
        "available_markets": [
          "AD",
          "AE",
          "AR",
          "AT",
          "AU",
          "BE",
          "BG",
          "BH",
          "BO",
          "BR",
          "CA",
          "CH",
          "CL",
          "CO",
          "CR",
          "CY",
          "CZ",
          "DE",
          "DK",
          "DO",
          "DZ",
          "EC",
          "EE",
          "EG",
          "ES",
          "FI",
          "FR",
          "GB",
          "GR",
          "GT",
          "HK",
          "HN",
          "HU",
          "ID",
          "IE",
          "IL",
          "IN",
          "IS",
          "IT",
          "JO",
          "JP",
          "KW",
          "LB",
          "LI",
          "LT",
          "LU",
          "LV",
          "MA",
          "MC",
          "MT",
          "MX",
          "MY",
          "NI",
          "NL",
          "NO",
          "NZ",
          "OM",
          "PA",
          "PE",
          "PH",
          "PL",
          "PS",
          "PT",
          "PY",
          "QA",
          "RO",
          "SA",
          "SE",
          "SG",
          "SK",
          "SV",
          "TH",
          "TN",
          "TR",
          "TW",
          "US",
          "UY",
          "VN",
          "ZA"
        ],
        "disc_number": 1,
        "duration_ms": 220853,
        "episode": false,
        "explicit": false,
        "external_ids": {
          "isrc": "USWB11801011"
        },
        "external_urls": {
          "spotify": "https://open.spotify.com/track/3R8CyhJfVjvgIROd5RSGhQ"
        },
        "href": "https://api.spotify.com/v1/tracks/3R8CyhJfVjvgIROd5RSGhQ",
        "id": "3R8CyhJfVjvgIROd5RSGhQ",
        "is_local": false,
        "name": "I Can See",
        "popularity": 64,
        "preview_url": "https://p.scdn.co/mp3-preview/b1f850feea03048535e65b109c316839079dedca?cid=774b29d4f13844c495f206cafdad9c86",
        "track": true,
        "track_number": 5,
        "type": "track",
        "uri": "spotify:track:3R8CyhJfVjvgIROd5RSGhQ"
      },
      "video_thumbnail": {
        "url": null
      }
    },
    {
      "added_at": "2020-01-26T02:34:54Z",
      "added_by": {
        "external_urls": {
          "spotify": "https://open.spotify.com/user/matthewkwong"
        },
        "href": "https://api.spotify.com/v1/users/matthewkwong",
        "id": "matthewkwong",
        "type": "user",
        "uri": "spotify:user:matthewkwong"
      },
      "is_local": false,
      "primary_color": null,
      "track": {
        "album": {
          "album_type": "album",
          "artists": [
            {
              "external_urls": {
                "spotify": "https://open.spotify.com/artist/4LLpKhyESsyAXpc4laK94U"
              },
              "href": "https://api.spotify.com/v1/artists/4LLpKhyESsyAXpc4laK94U",
              "id": "4LLpKhyESsyAXpc4laK94U",
              "name": "Mac Miller",
              "type": "artist",
              "uri": "spotify:artist:4LLpKhyESsyAXpc4laK94U"
            }
          ],
          "available_markets": [
            "AD",
            "AE",
            "AR",
            "AT",
            "AU",
            "BE",
            "BG",
            "BH",
            "BO",
            "BR",
            "CA",
            "CH",
            "CL",
            "CO",
            "CR",
            "CY",
            "CZ",
            "DE",
            "DK",
            "DO",
            "DZ",
            "EC",
            "EE",
            "EG",
            "ES",
            "FI",
            "FR",
            "GB",
            "GR",
            "GT",
            "HK",
            "HN",
            "HU",
            "ID",
            "IE",
            "IL",
            "IN",
            "IS",
            "IT",
            "JO",
            "JP",
            "KW",
            "LB",
            "LI",
            "LT",
            "LU",
            "LV",
            "MA",
            "MC",
            "MT",
            "MX",
            "MY",
            "NI",
            "NL",
            "NO",
            "NZ",
            "OM",
            "PA",
            "PE",
            "PH",
            "PL",
            "PS",
            "PT",
            "PY",
            "QA",
            "RO",
            "SA",
            "SE",
            "SG",
            "SK",
            "SV",
            "TH",
            "TN",
            "TR",
            "TW",
            "US",
            "UY",
            "VN",
            "ZA"
          ],
          "external_urls": {
            "spotify": "https://open.spotify.com/album/5sY6UIQ32GqwMLAfSNEaXb"
          },
          "href": "https://api.spotify.com/v1/albums/5sY6UIQ32GqwMLAfSNEaXb",
          "id": "5sY6UIQ32GqwMLAfSNEaXb",
          "images": [
            {
              "height": 640,
              "url": "https://i.scdn.co/image/ab67616d0000b27326b7dd89810cc1a40ada642c",
              "width": 640
            },
            {
              "height": 300,
              "url": "https://i.scdn.co/image/ab67616d00001e0226b7dd89810cc1a40ada642c",
              "width": 300
            },
            {
              "height": 64,
              "url": "https://i.scdn.co/image/ab67616d0000485126b7dd89810cc1a40ada642c",
              "width": 64
            }
          ],
          "name": "Circles",
          "release_date": "2020-01-17",
          "release_date_precision": "day",
          "total_tracks": 12,
          "type": "album",
          "uri": "spotify:album:5sY6UIQ32GqwMLAfSNEaXb"
        },
        "artists": [
          {
            "external_urls": {
              "spotify": "https://open.spotify.com/artist/4LLpKhyESsyAXpc4laK94U"
            },
            "href": "https://api.spotify.com/v1/artists/4LLpKhyESsyAXpc4laK94U",
            "id": "4LLpKhyESsyAXpc4laK94U",
            "name": "Mac Miller",
            "type": "artist",
            "uri": "spotify:artist:4LLpKhyESsyAXpc4laK94U"
          }
        ],
        "available_markets": [
          "AD",
          "AE",
          "AR",
          "AT",
          "AU",
          "BE",
          "BG",
          "BH",
          "BO",
          "BR",
          "CA",
          "CH",
          "CL",
          "CO",
          "CR",
          "CY",
          "CZ",
          "DE",
          "DK",
          "DO",
          "DZ",
          "EC",
          "EE",
          "EG",
          "ES",
          "FI",
          "FR",
          "GB",
          "GR",
          "GT",
          "HK",
          "HN",
          "HU",
          "ID",
          "IE",
          "IL",
          "IN",
          "IS",
          "IT",
          "JO",
          "JP",
          "KW",
          "LB",
          "LI",
          "LT",
          "LU",
          "LV",
          "MA",
          "MC",
          "MT",
          "MX",
          "MY",
          "NI",
          "NL",
          "NO",
          "NZ",
          "OM",
          "PA",
          "PE",
          "PH",
          "PL",
          "PS",
          "PT",
          "PY",
          "QA",
          "RO",
          "SA",
          "SE",
          "SG",
          "SK",
          "SV",
          "TH",
          "TN",
          "TR",
          "TW",
          "US",
          "UY",
          "VN",
          "ZA"
        ],
        "disc_number": 1,
        "duration_ms": 286386,
        "episode": false,
        "explicit": false,
        "external_ids": {
          "isrc": "USWB11801015"
        },
        "external_urls": {
          "spotify": "https://open.spotify.com/track/3Qa944OTMZkg8DHjET8JQv"
        },
        "href": "https://api.spotify.com/v1/tracks/3Qa944OTMZkg8DHjET8JQv",
        "id": "3Qa944OTMZkg8DHjET8JQv",
        "is_local": false,
        "name": "Woods",
        "popularity": 67,
        "preview_url": "https://p.scdn.co/mp3-preview/3fb306e16ccba696036c6263e955530f8d836c12?cid=774b29d4f13844c495f206cafdad9c86",
        "track": true,
        "track_number": 7,
        "type": "track",
        "uri": "spotify:track:3Qa944OTMZkg8DHjET8JQv"
      },
      "video_thumbnail": {
        "url": null
      }
    }
  ],
  "limit": 4,
  "next": "https://api.spotify.com/v1/playlists/01Tk0s9YXCMSxphZSSv994/tracks?offset=4&limit=4",
  "offset": 0,
  "previous": null,
  "total": 26
}